{
  "name": "belle",
  "alias": "belle.cirruscreative.host",
  "public": true,
  "type": "docker",
  "features": {
    "cloud": "v2"
  },
  "env": {
    "NODE_ENV": "production",
    "HOST": "0.0.0.0",
    "PORT": "3333",
    "APP_NAME": "Belle",
    "APP_URL": "http://${HOST}:${PORT}",
    "CACHE_VIEWS": "true",
    "APP_KEY": "@belle_app_key",
    "DB_CONNECTION": "mysql",
    "DB_HOST": "@belle_db_host",
    "DB_PORT": "3306",
    "DB_USER": "@belle_db_user",
    "DB_PASSWORD": "@belle_db_password",
    "DB_DATABASE": "@belle_db_database",
    "HASH_DRIVER": "bcrypt",
    "SESSION_DRIVER": "cookie",
    "VAPID_PUBLIC_KEY": "@belle_vapid_public_key",
    "VAPID_PRIVATE_KEY": "@belle_vapid_private_key",
    "HOOK_KEY": "@belle_hook_key"
  }
}
